(base) putta:~/.../P06$ ./memalloc 

Initial Allocation Table
Block No.	Size	Filled Status
1			100			0
2			500			0
3			200			0
4			300			0
5			600			0
Enter the process size (-1 to terminate): 230
Choose the memory allocation technique:
1. First fit
2. Best fit
3. Worst fit
Enter your choice: 2

Process 1 allocated in block : 4.

Memory Allocation Table

Block No.	Size	Filled Status
1			100		0
2			500		0
3			200		0
4			70		0
5			600		0
Enter the process size (-1 to terminate): 50
Choose the memory allocation technique:
1. First fit
2. Best fit
3. Worst fit
Enter your choice: 1

Process 2 allocated in block : 1.

Memory Allocation Table

Block No.	Size	Filled Status
1			50		0
2			500		0
3			200		0
4			70		0
5			600		0
Enter the process size (-1 to terminate): 70
Choose the memory allocation technique:
1. First fit
2. Best fit
3. Worst fit
Enter your choice: 2

Process 3 allocated in block : 4.

Memory Allocation Table

Block No.	Size	Filled Status
1			50		0
2			500		0
3			200		0
4			0		1
5			600		0
Enter the process size (-1 to terminate): 325
Choose the memory allocation technique:
1. First fit
2. Best fit
3. Worst fit
Enter your choice: 1

Process 4 allocated in block : 2.

Memory Allocation Table

Block No.	Size	Filled Status
1			50			0
2			175			0
3			200			0
4			0			1
5			600			0
Enter the process size (-1 to terminate): 100
Choose the memory allocation technique:
1. First fit
2. Best fit
3. Worst fit
Enter your choice: 3

Process 5 allocated in block : 5.

Memory Allocation Table

Block No.	Size	Filled Status
1			50			0
2			175			0
3			200			0
4			0			1
5			500			0
Enter the process size (-1 to terminate): -1

Final Allocation 
Process	Allotted_Block
P1			4
P2			1
P3			4
P4			2
P5			5

